%YAML 1.1
%TAG !u! tag:unity3d.com,2011:
--- !u!1 &4829089739403124631
GameObject:
  m_ObjectHideFlags: 0
  m_CorrespondingSourceObject: {fileID: 0}
  m_PrefabInstance: {fileID: 0}
  m_PrefabAsset: {fileID: 0}
  serializedVersion: 6
  m_Component:
  - component: {fileID: 4829089739403124629}
  - component: {fileID: 4829089739403124630}
  m_Layer: 0
  m_Name: AudioManager
  m_TagString: Untagged
  m_Icon: {fileID: 0}
  m_NavMeshLayer: 0
  m_StaticEditorFlags: 0
  m_IsActive: 1
--- !u!4 &4829089739403124629
Transform:
  m_ObjectHideFlags: 0
  m_CorrespondingSourceObject: {fileID: 0}
  m_PrefabInstance: {fileID: 0}
  m_PrefabAsset: {fileID: 0}
  m_GameObject: {fileID: 4829089739403124631}
  m_LocalRotation: {x: 0, y: 0, z: 0, w: 1}
  m_LocalPosition: {x: 0, y: 0, z: 0}
  m_LocalScale: {x: 1, y: 1, z: 1}
  m_Children: []
  m_Father: {fileID: 0}
  m_RootOrder: 0
  m_LocalEulerAnglesHint: {x: 0, y: 0, z: 0}
--- !u!114 &4829089739403124630
MonoBehaviour:
  m_ObjectHideFlags: 0
  m_CorrespondingSourceObject: {fileID: 0}
  m_PrefabInstance: {fileID: 0}
  m_PrefabAsset: {fileID: 0}
  m_GameObject: {fileID: 4829089739403124631}
  m_Enabled: 1
  m_EditorHideFlags: 0
  m_Script: {fileID: 11500000, guid: c31ad9a759127b544b297ac4c04926a4, type: 3}
  m_Name: 
  m_EditorClassIdentifier: 
  sounds:
  - name: SwordWoosh
    clip: {fileID: 8300000, guid: 6e55203b478b6d94688773a4c364e88a, type: 3}
    volume: 1
    pitch: 1
    source: {fileID: 0}
  - name: Ambient
    clip: {fileID: 8300000, guid: ec76a084581d80649a4c7d8fc03770b1, type: 3}
    volume: 1
    pitch: 1
    source: {fileID: 0}
  - name: Shoptheme
    clip: {fileID: 8300000, guid: f4bd987e3b9e9dc4ab9d9d3272ce2ebe, type: 3}
    volume: 1
    pitch: 1
    source: {fileID: 0}
